<define-tag pagetitle>DSA-4358-1 ruby-sanitize</define-tag>
<define-tag report_date>2018-12-27</define-tag>
<define-tag secrefs>CVE-2018-3740 Bug#893610</define-tag>
<define-tag packages>ruby-sanitize</define-tag>
<define-tag isvulnerable>yes</define-tag>
<define-tag fixed>yes</define-tag>
<define-tag fixed-section>no</define-tag>

#use wml::debian::security



</dl>
