<define-tag pagetitle>DLA-2915-1 connman</define-tag>
<define-tag report_date>2022-02-09</define-tag>
<define-tag secrefs>CVE-2021-33833 CVE-2022-23096 CVE-2022-23097 CVE-2022-23098</define-tag>
<define-tag packages>connman</define-tag>
<define-tag isvulnerable>yes</define-tag>
<define-tag fixed>yes</define-tag>
<define-tag fixed-section>no</define-tag>

#use wml::debian::security

