<define-tag pagetitle>DLA-2913-1 xterm</define-tag>
<define-tag report_date>2022-02-07</define-tag>
<define-tag secrefs>CVE-2022-24130 Bug#1004689</define-tag>
<define-tag packages>xterm</define-tag>
<define-tag isvulnerable>yes</define-tag>
<define-tag fixed>yes</define-tag>
<define-tag fixed-section>no</define-tag>

#use wml::debian::security

