<define-tag pagetitle>DLA-3032-1 pngcheck</define-tag>
<define-tag report_date>2022-5-29</define-tag>
<define-tag secrefs>CVE-2020-27818 Bug#976350</define-tag>
<define-tag packages>pngcheck</define-tag>
<define-tag isvulnerable>yes</define-tag>
<define-tag fixed>yes</define-tag>
<define-tag fixed-section>no</define-tag>

#use wml::debian::security

