<define-tag pagetitle>DSA-4740-1 thunderbird</define-tag>
<define-tag report_date>2020-8-02</define-tag>
<define-tag secrefs>CVE-2020-6463 CVE-2020-6514 CVE-2020-15652 CVE-2020-15659</define-tag>
<define-tag packages>thunderbird</define-tag>
<define-tag isvulnerable>yes</define-tag>
<define-tag fixed>yes</define-tag>
<define-tag fixed-section>no</define-tag>

#use wml::debian::security



</dl>
