<define-tag pagetitle>DSA-4614-1 sudo</define-tag>
<define-tag report_date>2020-2-01</define-tag>
<define-tag secrefs>CVE-2019-18634 Bug#950371</define-tag>
<define-tag packages>sudo</define-tag>
<define-tag isvulnerable>yes</define-tag>
<define-tag fixed>yes</define-tag>
<define-tag fixed-section>no</define-tag>

#use wml::debian::security



</dl>
