<define-tag pagetitle>DLA-2588-1 zeromq3</define-tag>
<define-tag report_date>2021-03-09</define-tag>
<define-tag secrefs>CVE-2021-20234 CVE-2021-20235</define-tag>
<define-tag packages>zeromq3</define-tag>
<define-tag isvulnerable>yes</define-tag>
<define-tag fixed>yes</define-tag>
<define-tag fixed-section>no</define-tag>

#use wml::debian::security

