<define-tag pagetitle>DSA-5520-1 mediawiki</define-tag>
<define-tag report_date>2023-10-10</define-tag>
<define-tag secrefs>CVE-2023-3550 CVE-2023-45359 CVE-2023-45360 CVE-2023-45361 CVE-2023-45362 CVE-2023-45363 CVE-2023-45364</define-tag>
<define-tag packages>mediawiki</define-tag>
<define-tag isvulnerable>yes</define-tag>
<define-tag fixed>yes</define-tag>
<define-tag fixed-section>no</define-tag>

#use wml::debian::security



</dl>
