<define-tag pagetitle>DSA-5429-1 wireshark</define-tag>
<define-tag report_date>2023-6-15</define-tag>
<define-tag secrefs>CVE-2023-0666 CVE-2023-0668 CVE-2023-1161 CVE-2023-1992 CVE-2023-1993 CVE-2023-1994 CVE-2023-2854 CVE-2023-2855 CVE-2023-2856 CVE-2023-2857 CVE-2023-2858 CVE-2023-2879 CVE-2023-2952</define-tag>
<define-tag packages>wireshark</define-tag>
<define-tag isvulnerable>yes</define-tag>
<define-tag fixed>yes</define-tag>
<define-tag fixed-section>no</define-tag>

#use wml::debian::security



</dl>
