<define-tag pagetitle>DSA-5399-1 odoo</define-tag>
<define-tag report_date>2023-5-05</define-tag>
<define-tag secrefs>CVE-2021-23166 CVE-2021-23176 CVE-2021-23178 CVE-2021-23186 CVE-2021-23203 CVE-2021-26263 CVE-2021-26947 CVE-2021-44476 CVE-2021-44775 CVE-2021-45071 CVE-2021-45111</define-tag>
<define-tag packages>odoo</define-tag>
<define-tag isvulnerable>yes</define-tag>
<define-tag fixed>yes</define-tag>
<define-tag fixed-section>no</define-tag>

#use wml::debian::security



</dl>
