<define-tag pagetitle>DSA-5441-1 maradns</define-tag>
<define-tag report_date>2023-6-29</define-tag>
<define-tag secrefs>CVE-2022-30256 CVE-2023-31137 Bug#1033252 Bug#1035936</define-tag>
<define-tag packages>maradns</define-tag>
<define-tag isvulnerable>yes</define-tag>
<define-tag fixed>yes</define-tag>
<define-tag fixed-section>no</define-tag>

#use wml::debian::security



</dl>
