<define-tag pagetitle>DSA-5551-1 chromium</define-tag>
<define-tag report_date>2023-11-09</define-tag>
<define-tag secrefs>CVE-2023-5996 Bug#1033136</define-tag>
<define-tag packages>chromium</define-tag>
<define-tag isvulnerable>yes</define-tag>
<define-tag fixed>yes</define-tag>
<define-tag fixed-section>no</define-tag>

#use wml::debian::security



</dl>
