<define-tag pagetitle>DSA-5479-1 chromium</define-tag>
<define-tag report_date>2023-8-17</define-tag>
<define-tag secrefs>CVE-2023-2312 CVE-2023-4349 CVE-2023-4350 CVE-2023-4351 CVE-2023-4352 CVE-2023-4353 CVE-2023-4354 CVE-2023-4355 CVE-2023-4356 CVE-2023-4357 CVE-2023-4358 CVE-2023-4359 CVE-2023-4360 CVE-2023-4361 CVE-2023-4362 CVE-2023-4363 CVE-2023-4364 CVE-2023-4365 CVE-2023-4366 CVE-2023-4367 CVE-2023-4368</define-tag>
<define-tag packages>chromium</define-tag>
<define-tag isvulnerable>yes</define-tag>
<define-tag fixed>yes</define-tag>
<define-tag fixed-section>no</define-tag>

#use wml::debian::security



</dl>
