<define-tag pagetitle>DSA-5510-1 libvpx</define-tag>
<define-tag report_date>2023-9-29</define-tag>
<define-tag secrefs>CVE-2023-5217 Bug#1053182</define-tag>
<define-tag packages>libvpx</define-tag>
<define-tag isvulnerable>yes</define-tag>
<define-tag fixed>yes</define-tag>
<define-tag fixed-section>no</define-tag>

#use wml::debian::security



</dl>
