<define-tag pagetitle>DSA-5425-1 php8.2</define-tag>
<define-tag report_date>2023-6-13</define-tag>
<define-tag secrefs>not yet available</define-tag>
<define-tag packages>php8.2</define-tag>
<define-tag isvulnerable>yes</define-tag>
<define-tag fixed>yes</define-tag>
<define-tag fixed-section>no</define-tag>

#use wml::debian::security



</dl>
