<define-tag pagetitle>DSA-5475-1 linux</define-tag>
<define-tag report_date>2023-8-11</define-tag>
<define-tag secrefs>CVE-2022-40982 CVE-2023-20569</define-tag>
<define-tag packages>linux</define-tag>
<define-tag isvulnerable>yes</define-tag>
<define-tag fixed>yes</define-tag>
<define-tag fixed-section>no</define-tag>

#use wml::debian::security



</dl>
