<define-tag pagetitle>DLA-1193-1 roundcube</define-tag>
<define-tag report_date>2017-11-28</define-tag>
<define-tag secrefs>CVE-2017-16651</define-tag>
<define-tag packages>roundcube</define-tag>
<define-tag isvulnerable>yes</define-tag>
<define-tag fixed>yes</define-tag>
<define-tag fixed-section>no</define-tag>

#use wml::debian::security

