<define-tag pagetitle>DLA-3647-1 trapperkeeper-webserver-jetty9-clojure</define-tag>
<define-tag report_date>2023-11-07</define-tag>
<define-tag secrefs>Bug#1055348</define-tag>
<define-tag packages>trapperkeeper-webserver-jetty9-clojure</define-tag>
<define-tag isvulnerable>yes</define-tag>
<define-tag fixed>yes</define-tag>
<define-tag fixed-section>no</define-tag>

#use wml::debian::security

