<define-tag pagetitle>DLA-3503-1 gst-plugins-bad1.0</define-tag>
<define-tag report_date>2023-7-25</define-tag>
<define-tag secrefs>CVE-2023-37329</define-tag>
<define-tag packages>gst-plugins-bad1.0</define-tag>
<define-tag isvulnerable>yes</define-tag>
<define-tag fixed>yes</define-tag>
<define-tag fixed-section>no</define-tag>

#use wml::debian::security

