<define-tag pagetitle>DLA-3447-1 ruby2.5</define-tag>
<define-tag report_date>2023-06-06</define-tag>
<define-tag secrefs>CVE-2023-28755 CVE-2023-28756</define-tag>
<define-tag packages>ruby2.5</define-tag>
<define-tag isvulnerable>yes</define-tag>
<define-tag fixed>yes</define-tag>
<define-tag fixed-section>no</define-tag>

#use wml::debian::security
