<define-tag pagetitle>DLA-3597-1 open-vm-tools</define-tag>
<define-tag report_date>2023-10-01</define-tag>
<define-tag secrefs>CVE-2023-20900 Bug#1050970</define-tag>
<define-tag packages>open-vm-tools</define-tag>
<define-tag isvulnerable>yes</define-tag>
<define-tag fixed>yes</define-tag>
<define-tag fixed-section>no</define-tag>

#use wml::debian::security

