<define-tag pagetitle>DLA-3588-1 vim</define-tag>
<define-tag report_date>2023-09-29</define-tag>
<define-tag secrefs>CVE-2023-4752 CVE-2023-4781</define-tag>
<define-tag packages>vim</define-tag>
<define-tag isvulnerable>yes</define-tag>
<define-tag fixed>yes</define-tag>
<define-tag fixed-section>no</define-tag>

#use wml::debian::security

