<define-tag pagetitle>DLA-3380-1 firmware-nonfree</define-tag>
<define-tag report_date>2023-04-01</define-tag>
<define-tag secrefs>CVE-2020-12362 CVE-2020-12363 CVE-2020-12364 CVE-2020-24586 CVE-2020-24587 CVE-2020-24588 CVE-2021-23168 CVE-2021-23223 CVE-2021-37409 CVE-2021-44545 CVE-2022-21181 Bug#844056 Bug#877667 Bug#903437 Bug#919452 Bug#919632 Bug#927286 Bug#927917 Bug#928510 Bug#928631 Bug#928672 Bug#931930 Bug#935969 Bug#947356 Bug#956224 Bug#962972 Bug#963025 Bug#963558 Bug#964028 Bug#966025 Bug#968272 Bug#969000 Bug#971791 Bug#975726 Bug#977042 Bug#980101 Bug#982579 Bug#982757 Bug#983255 Bug#983561 Bug#984489 Bug#984852 Bug#984874 Bug#985740 Bug#985743 Bug#991500 Bug#992551 Bug#999825 Bug#1006500 Bug#1006638 Bug#1009316 Bug#1009618 Bug#1014651 Bug#1015728 Bug#1016058 Bug#1019847 Bug#1020962</define-tag>
<define-tag packages>firmware-nonfree</define-tag>
<define-tag isvulnerable>yes</define-tag>
<define-tag fixed>yes</define-tag>
<define-tag fixed-section>no</define-tag>

#use wml::debian::security

