<define-tag pagetitle>DLA-3599-1 exim4</define-tag>
<define-tag report_date>2023-10-02</define-tag>
<define-tag secrefs>CVE-2023-42114 CVE-2023-42116</define-tag>
<define-tag packages>exim4</define-tag>
<define-tag isvulnerable>yes</define-tag>
<define-tag fixed>yes</define-tag>
<define-tag fixed-section>no</define-tag>

#use wml::debian::security

