<define-tag pagetitle>DLA-3451-1 pypdf2</define-tag>
<define-tag report_date>2023-6-09</define-tag>
<define-tag secrefs>CVE-2022-24859 Bug#1009879</define-tag>
<define-tag packages>pypdf2</define-tag>
<define-tag isvulnerable>yes</define-tag>
<define-tag fixed>yes</define-tag>
<define-tag fixed-section>no</define-tag>

#use wml::debian::security

