<define-tag pagetitle>DLA-3612-1 lemonldap-ng</define-tag>
<define-tag report_date>2023-10-08</define-tag>
<define-tag secrefs>CVE-2023-44469</define-tag>
<define-tag packages>lemonldap-ng</define-tag>
<define-tag isvulnerable>yes</define-tag>
<define-tag fixed>yes</define-tag>
<define-tag fixed-section>no</define-tag>

#use wml::debian::security

