<define-tag pagetitle>DLA-3618-1 node-babel</define-tag>
<define-tag report_date>2023-10-19</define-tag>
<define-tag secrefs>CVE-2023-45133 Bug#https://bugs.debian.org/1053880</define-tag>
<define-tag packages>node-babel</define-tag>
<define-tag isvulnerable>yes</define-tag>
<define-tag fixed>yes</define-tag>
<define-tag fixed-section>no</define-tag>

#use wml::debian::security

