<define-tag pagetitle>DLA-3620-1 poppler</define-tag>
<define-tag report_date>2023-10-16</define-tag>
<define-tag secrefs>CVE-2020-23804 CVE-2022-37050 CVE-2022-37051</define-tag>
<define-tag packages>poppler</define-tag>
<define-tag isvulnerable>yes</define-tag>
<define-tag fixed>yes</define-tag>
<define-tag fixed-section>no</define-tag>

#use wml::debian::security

