<define-tag pagetitle>DLA-3450-1 ruby2.5</define-tag>
<define-tag report_date>2023-06-19</define-tag>
<define-tag secrefs>CVE-2021-33621 CVE-2022-28739 Bug#1009957 Bug#1024800 Bug#1037178</define-tag>
<define-tag packages>ruby2.5</define-tag>
<define-tag isvulnerable>yes</define-tag>
<define-tag fixed>yes</define-tag>
<define-tag fixed-section>no</define-tag>

#use wml::debian::security

