<define-tag pagetitle>DLA-3622-1 axis</define-tag>
<define-tag report_date>2023-10-17</define-tag>
<define-tag secrefs>CVE-2023-40743 Bug#1051288</define-tag>
<define-tag packages>axis</define-tag>
<define-tag isvulnerable>yes</define-tag>
<define-tag fixed>yes</define-tag>
<define-tag fixed-section>no</define-tag>

#use wml::debian::security

