<define-tag pagetitle>DLA-2410-1 bluez</define-tag>
<define-tag report_date>2020-10-21</define-tag>
<define-tag secrefs>CVE-2020-27153</define-tag>
<define-tag packages>bluez</define-tag>
<define-tag isvulnerable>yes</define-tag>
<define-tag fixed>yes</define-tag>
<define-tag fixed-section>no</define-tag>

#use wml::debian::security
