<define-tag pagetitle>DLA-2177-1 git</define-tag>
<define-tag report_date>2020-04-15</define-tag>
<define-tag secrefs>CVE-2020-5260</define-tag>
<define-tag packages>git</define-tag>
<define-tag isvulnerable>yes</define-tag>
<define-tag fixed>yes</define-tag>
<define-tag fixed-section>no</define-tag>

#use wml::debian::security

