<define-tag pagetitle>DLA-1295-1 drupal7</define-tag>
<define-tag report_date>2018-2-28</define-tag>
<define-tag secrefs>CVE-2017-6927 CVE-2017-6928 CVE-2017-6929 CVE-2017-6932 Bug#891152 Bug#891150 Bug#891153 Bug#891154</define-tag>
<define-tag packages>drupal7</define-tag>
<define-tag isvulnerable>yes</define-tag>
<define-tag fixed>yes</define-tag>
<define-tag fixed-section>no</define-tag>

#use wml::debian::security

