<define-tag pagetitle>DLA-1361-1 psensor</define-tag>
<define-tag report_date>2018-4-24</define-tag>
<define-tag secrefs>CVE-2014-10073 Bug#896195</define-tag>
<define-tag packages>psensor</define-tag>
<define-tag isvulnerable>yes</define-tag>
<define-tag fixed>yes</define-tag>
<define-tag fixed-section>no</define-tag>

#use wml::debian::security

