<define-tag pagetitle>DSA-4559-1 proftpd-dfsg</define-tag>
<define-tag report_date>2019-11-05</define-tag>
<define-tag secrefs>CVE-2019-18217 Bug#942831</define-tag>
<define-tag packages>proftpd-dfsg</define-tag>
<define-tag isvulnerable>yes</define-tag>
<define-tag fixed>yes</define-tag>
<define-tag fixed-section>no</define-tag>

#use wml::debian::security



</dl>
