<define-tag pagetitle>DSA-4366-1 vlc</define-tag>
<define-tag report_date>2019-1-12</define-tag>
<define-tag secrefs>CVE-2018-19857</define-tag>
<define-tag packages>vlc</define-tag>
<define-tag isvulnerable>yes</define-tag>
<define-tag fixed>yes</define-tag>
<define-tag fixed-section>no</define-tag>

#use wml::debian::security



</dl>
