<define-tag pagetitle>DSA-4570-1 mosquitto</define-tag>
<define-tag report_date>2019-11-17</define-tag>
<define-tag secrefs>CVE-2019-11779 Bug#940654</define-tag>
<define-tag packages>mosquitto</define-tag>
<define-tag isvulnerable>yes</define-tag>
<define-tag fixed>yes</define-tag>
<define-tag fixed-section>no</define-tag>

#use wml::debian::security



</dl>
