## Books are sorted with this criteria:
#  - language (add books under the specific <language name="xzy"> tag;
#  language are alphabetically sorted in english. (FIXME: manage the
#  sorting of the languages via isoquery as in cdvendors and
#  pre-installed pages)
#
#  - if a book is available in more than one language, please add it for
#  all the languages for which is available
#
#  - for each language, books are sorted by age (more recent editions -
#  and/or additions - first)
#
# Please respect this sorting.
# Books details are added in this order: Title, Author, Publisher, URL,
# email, cd included, description.



#include "$(ENGLISHDIR)/doc/books.def"
<bind-gettext-domain domain="doc" />

<language name="dutch">
<bookentry>
  <title Debian 10, van inleiding tot systeembeheer>
  <author Koen Wybo>
  <debian-release "10/Buster">
  <publisher pumbo>
  <URL "http://linuxleren.nl/">
  <available
      <a href="https://www.boekenbestellen.nl/boek/debian-10/">https://www.boekenbestellen.nl/boek/debian-10/</a>
  >
  <email koen.wybo@telenet.be>
  <br />
  <description
  <gettext domain="doc">
  Debian 9 is the must-have handbook for learning Linux. Start on the
  beginners level and learn how to deploy the system with graphical
  interface and terminal.
  This book provides the basic knowledge to grow and become a 'junior'
  systems administrator. Start off with exploring the GNOME desktop
  interface and adjust it to your personal needs. Overcome your fear of
  using the Linux terminal and learn the most essential commands in
  administering Debian. Expand your knowledge of system services (systemd)
  and learn how to adapt them. Get more out of the software in Debian and
  outside of Debian. Manage your home-network with network-manager, etc.
  10 percent of the profits on this book will be donated to the Debian
  Project.</gettext>>
</bookentry>
</language>

<language name="english">
<bookentry>
  <title The Debian Administrator's Handbook, Debian Buster from Discovery to Mastery>
  <author Rapha&euml;l Hertzog, Roland Mas>
  <debian-release "10/Buster">
  <publisher Freexian>
  <URL "https://debian-handbook.info/get/">
  <available
    <a href="https://www.lulu.com/shop/roland-mas-and-rapha%C3%ABl-hertzog/the-debian-administrators-handbook-debian-buster-from-discovery-to-mastery/paperback/product-mz7yj5.html">Lulu</a>
  >
  <br />
  <description
  <gettext domain="doc">Written by two Debian developers, this free book
  started as a translation of their French best-seller known as Cahier de
  l'admin Debian (published by Eyrolles). Accessible to all, this book
  teaches the essentials to anyone who wants to become an effective and
  independent Debian GNU/Linux administrator.
  It covers all the topics that a competent Linux administrator should
  master, from the installation and the update of the system, up to the
  creation of packages and the compilation of the kernel, but also
  monitoring, backup and migration, without forgetting advanced topics
  like SELinux setup to secure services, automated installations, or
  virtualization with Xen, KVM or LXC.</gettext>>
</bookentry>

<bookentry>
  <title Debian GNU/Linux Desktop Survival Guide>
  <author Graham J Williams>
  <debian-release "9/Stretch">
  <publisher Togaware>
  <URL "http://www.togaware.com/linux/survivor/">
  <email Graham.Williams@togaware.com>
  <br />
  <description
  <gettext domain="doc">The aim of this freely available book is to get you up to
  speed with Debian. It is comprehensive with basic support
  for the user who installs and maintains the system themselves (whether
  in the home, office, club, or school). Some Debian specific information are very old.
  </gettext>>
</bookentry>
</language>

<language name="french">
<bookentry>
  <title Debian 8 Jessie : GNU/Linux>
  <author Rapha&euml;l Hertzog, Roland Mas>
  <debian-release "8/Jessie">
  <publisher Eyrolles>
  <URL "https://raphaelhertzog.fr/livre/cahier-admin-debian/">
  <available
    <a href="https://www.amazon.fr/dp/221214203X">Amazon</a>,
    <a href="http://www.eyrolles.com/Informatique/Livre/debian-8-jessie-9782212142037">Eyrolles</a>
  >
  <email raphael@ouaza.com>
  <br />
  <description
  <gettext domain="doc">The first French book about Debian is already in its fifth edition. It
  covers all aspects of the administration of Debian from the installation
  to the configuration of network services.
  Written by two Debian developers, this book can be of interest to many
  people: the beginner wishing to discover Debian, the advanced user looking
  for tips to enhance his mastership of the Debian tools and the
  administrator who wants to build a reliable network with Debian.</gettext>>
</bookentry>
</language>

<language name="german">
<bookentry>
  <title Debian-Paketmanagement>
  <author Axel Beckert, Frank Hofmann>
  <debian-release "9/Stretch">
  <publisher Onyx Neon>
  <URL "http://www.dpmb.org/">
  <email book@dpmb.org>
  <br />
  <description
  <gettext domain="doc">The book covers topics ranging from concepts of package
  management over the available tools and how they're used to concrete problems
  which may occur in real life and how they can be solved. The book is written
  in German, an English translation is planned. Format: e-book (Online, HTML,
  PDF, ePub, Mobi), printed book planned.
</gettext>>
</bookentry>

<bookentry>
  <title Debian GNU/Linux: Das umfassende Handbuch (aktuell zu »Jessie«)>
  <author Heike Jurzik>
  <debian-release "8/Jessie">
  <publisher Rheinwerk Computing>
  <URL "https://www.rheinwerk-verlag.de/debian-gnulinux_3847/">
  <available
    <a href="https://www.amazon.de/dp/3836237628">Amazon</a>,
    <a href="https://www.rheinwerk-verlag.de/debian-gnulinux_3847/">Rheinwerk</a>
  >
  <email service@rheinwerk-verlag.de>
  <br />
  <description
  <gettext domain="doc">This book teaches you how to install and configure the system and also how to use Debian in a professional environment.  It shows the full potential of the distribution (in its current version 8) and provides a practical manual for all users who want to learn more about Debian and its range of services.</gettext>>
</bookentry>

<bookentry>
  <title Debian GNU/Linux Anwenderhandbuch>
  <author Frank Ronneburg>
  <debian-release "7/Wheezy">
  <publisher Addison Wesley>
  <URL "http://debiananwenderhandbuch.de/">
  <email fr@debiananwenderhandbuch.de>
</bookentry>
</language>

<language name="japanese">
<bookentry>
  <title Debian 管理者ハンドブック、Debian Jessie との出会いから習熟まで>
  <author Rapha&euml;l Hertzog, Roland Mas>
  <debian-release "8/Jessie">
  <publisher Freexian>
  <URL "https://debian-handbook.info/get/">
  <available
    <a href="https://www.lulu.com/shop/product-22625767.html">Lulu</a>
  >
  <br />
  <description
  <gettext domain="doc">Written by two Debian developers, this free book
  started as a translation of their French best-seller known as Cahier de
  l'admin Debian (published by Eyrolles). Accessible to all, this book
  teaches the essentials to anyone who wants to become an effective and
  independent Debian GNU/Linux administrator.
  It covers all the topics that a competent Linux administrator should
  master, from the installation and the update of the system, up to the
  creation of packages and the compilation of the kernel, but also
  monitoring, backup and migration, without forgetting advanced topics
  like SELinux setup to secure services, automated installations, or
  virtualization with Xen, KVM or LXC.</gettext>>
</bookentry>
</language>

<language name="korean">
<bookentry>
  <title 데비안 리눅스 활용과 보안 [칼리 리눅스의 원조]>
  <author 오 동진, 이 태희>
  <debian-release "8/Jessie">
  <publisher AcornPub>
  <URL "http://acornpub.co.kr/book/debian-kali">
  <available
    <a href="http://www.yes24.com/24/Goods/42491040?Acode=101">Yes24</a>,
    <a href="http://www.kyobobook.co.kr/product/detailViewKor.laf?barcode=9791161750125">Kyobobook</a>,
    <a href="http://www.aladin.co.kr/shop/wproduct.aspx?ItemId=111075971">Aladin</a>
  >
  <email janussys@naver.com>
  <br />
  <description
  <gettext domain="doc">Written by two penetration researcher - Annihilator, Firstblood.
  This book teaches you how to build and configure Debian 8.x server system
  security hardening using Kali Linux and Debian simultaneously.
  DNS, FTP, SAMBA, DHCP, Apache2 webserver, etc.
  From the perspective that 'the origin of Kali Linux is Debian', it explains
  how to enhance Debian's security by applying the method of penetration
  testing.
  This book covers various security issues like SSL cerificates, UFW firewall,
  MySQL Vulnerability, commercial Symantec antivirus, including Snort
  intrusion detection system.</gettext>>
</bookentry>
</language>

<language name="spanish">
<bookentry>
  <title El manual del Administrador de Debian>
  <author Rapha&euml;l Hertzog, Roland Mas>
  <debian-release "8/Jessie">
  <publisher Freexian>
  <URL "https://debian-handbook.info/get/">
  <available
    <a href="https://www.lulu.com/shop/product-22877838.html">Lulu</a>,
    <a href="https://www.amazon.es/dp/B01MA0GHRH">Amazon</a>
  >
  <br />
  <description
  <gettext domain="doc">Written by two Debian developers, this free book
  started as a translation of their French best-seller known as Cahier de
  l'admin Debian (published by Eyrolles). Accessible to all, this book
  teaches the essentials to anyone who wants to become an effective and
  independent Debian GNU/Linux administrator.
  It covers all the topics that a competent Linux administrator should
  master, from the installation and the update of the system, up to the
  creation of packages and the compilation of the kernel, but also
  monitoring, backup and migration, without forgetting advanced topics
  like SELinux setup to secure services, automated installations, or
  virtualization with Xen, KVM or LXC.</gettext>>
</bookentry>
</language>
