<define-tag pagetitle>DSA-5204-1 gst-plugins-good1.0</define-tag>
<define-tag report_date>2022-8-09</define-tag>
<define-tag secrefs>CVE-2022-1920 CVE-2022-1921 CVE-2022-1922 CVE-2022-1923 CVE-2022-1924 CVE-2022-1925 CVE-2022-2122</define-tag>
<define-tag packages>gst-plugins-good1.0</define-tag>
<define-tag isvulnerable>yes</define-tag>
<define-tag fixed>yes</define-tag>
<define-tag fixed-section>no</define-tag>

#use wml::debian::security



</dl>
