<define-tag pagetitle>DSA-5287-1 heimdal</define-tag>
<define-tag report_date>2022-11-22</define-tag>
<define-tag secrefs>CVE-2021-3671 CVE-2021-44758 CVE-2022-3437 CVE-2022-41916 CVE-2022-42898 CVE-2022-44640 Bug#996586</define-tag>
<define-tag packages>heimdal</define-tag>
<define-tag isvulnerable>yes</define-tag>
<define-tag fixed>yes</define-tag>
<define-tag fixed-section>no</define-tag>

#use wml::debian::security



</dl>
