<define-tag pagetitle>DSA-5161-1 linux</define-tag>
<define-tag report_date>2022-6-11</define-tag>
<define-tag secrefs>CVE-2022-0494 CVE-2022-0854 CVE-2022-1012 CVE-2022-1729 CVE-2022-1786 CVE-2022-1789 CVE-2022-1852 CVE-2022-32250 CVE-2022-1974 CVE-2022-1975 CVE-2022-2078 CVE-2022-21499 CVE-2022-28893</define-tag>
<define-tag packages>linux</define-tag>
<define-tag isvulnerable>yes</define-tag>
<define-tag fixed>yes</define-tag>
<define-tag fixed-section>no</define-tag>

#use wml::debian::security



</dl>
