<define-tag pagetitle>DLA-1863-1 linux-4.9</define-tag>
<define-tag report_date>2019-07-27</define-tag>
<define-tag secrefs>CVE-2019-13272</define-tag>
<define-tag packages>linux-4.9</define-tag>
<define-tag isvulnerable>yes</define-tag>
<define-tag fixed>yes</define-tag>
<define-tag fixed-section>no</define-tag>

#use wml::debian::security

