<define-tag pagetitle>DLA-1929-1 php-pecl-http</define-tag>
<define-tag report_date>2019-09-20</define-tag>
<define-tag secrefs>CVE-2016-7398</define-tag>
<define-tag packages>php-pecl-http</define-tag>
<define-tag isvulnerable>yes</define-tag>
<define-tag fixed>yes</define-tag>
<define-tag fixed-section>no</define-tag>

#use wml::debian::security

