<define-tag pagetitle>DLA-1660-2 rssh</define-tag>
<define-tag report_date>2019-02-19</define-tag>
<define-tag packages>rssh</define-tag>
<define-tag isvulnerable>yes</define-tag>
<define-tag fixed>yes</define-tag>
<define-tag fixed-section>no</define-tag>

#use wml::debian::security

